%YAML 1.1
%TAG !u! tag:unity3d.com,2011:
--- !u!114 &11400000
MonoBehaviour:
  m_ObjectHideFlags: 0
  m_CorrespondingSourceObject: {fileID: 0}
  m_PrefabInstance: {fileID: 0}
  m_PrefabAsset: {fileID: 0}
  m_GameObject: {fileID: 0}
  m_Enabled: 1
  m_EditorHideFlags: 0
  m_Script: {fileID: 11500000, guid: 4350e16a83aa6d84a8f03bb27e566535, type: 3}
  m_Name: ClassicDartboard
  m_EditorClassIdentifier: 
  dartboardMaterial: {fileID: 2100000, guid: c7cfa545d893b80428716b9b7f441015, type: 2}
