%YAML 1.1
%TAG !u! tag:unity3d.com,2011:
--- !u!114 &11400000
MonoBehaviour:
  m_ObjectHideFlags: 0
  m_CorrespondingSourceObject: {fileID: 0}
  m_PrefabInstance: {fileID: 0}
  m_PrefabAsset: {fileID: 0}
  m_GameObject: {fileID: 0}
  m_Enabled: 1
  m_EditorHideFlags: 0
  m_Script: {fileID: 11500000, guid: 375548899323b744591b50ad7568492b, type: 3}
  m_Name: Boss Roll
  m_EditorClassIdentifier: 
  bossName: Roll
  dartboardMaterial: {fileID: 2100000, guid: 7e7a429c5b25810468a00058d22df864, type: 2}
  knifeSpawnCount: 6
  stageKivesCount: 10
  rotationRules:
  - rotation: 200
    time: 2
  - rotation: -50
    time: 1
  - rotation: 200
    time: 2
