%YAML 1.1
%TAG !u! tag:unity3d.com,2011:
--- !u!114 &11400000
MonoBehaviour:
  m_ObjectHideFlags: 0
  m_CorrespondingSourceObject: {fileID: 0}
  m_PrefabInstance: {fileID: 0}
  m_PrefabAsset: {fileID: 0}
  m_GameObject: {fileID: 0}
  m_Enabled: 1
  m_EditorHideFlags: 0
  m_Script: {fileID: 11500000, guid: 375548899323b744591b50ad7568492b, type: 3}
  m_Name: Boss Tomato
  m_EditorClassIdentifier: 
  bossName: Tomato
  dartboardMaterial: {fileID: 2100000, guid: 256a76da2391bdb4e99576606036279e, type: 2}
  knifeSpawnCount: 4
  stageKivesCount: 12
  rotationRules:
  - rotation: 150
    time: 1
  - rotation: 0
    time: 0.2
  - rotation: -150
    time: 1
  - rotation: 0
    time: 0.2
  - rotation: 150
    time: 1
