%YAML 1.1
%TAG !u! tag:unity3d.com,2011:
--- !u!114 &11400000
MonoBehaviour:
  m_ObjectHideFlags: 0
  m_CorrespondingSourceObject: {fileID: 0}
  m_PrefabInstance: {fileID: 0}
  m_PrefabAsset: {fileID: 0}
  m_GameObject: {fileID: 0}
  m_Enabled: 1
  m_EditorHideFlags: 0
  m_Script: {fileID: 11500000, guid: 954830a661d9c9e4ca4671f758a5693c, type: 3}
  m_Name: RollBossRequest
  m_EditorClassIdentifier: 
  request:
    requaredBoss: {fileID: 11400000, guid: 68fbbdaae910fc741afd2e80cb3cdf77, type: 2}
