%YAML 1.1
%TAG !u! tag:unity3d.com,2011:
--- !u!114 &11400000
MonoBehaviour:
  m_ObjectHideFlags: 0
  m_CorrespondingSourceObject: {fileID: 0}
  m_PrefabInstance: {fileID: 0}
  m_PrefabAsset: {fileID: 0}
  m_GameObject: {fileID: 0}
  m_Enabled: 1
  m_EditorHideFlags: 0
  m_Script: {fileID: 11500000, guid: 1e51d57f568072f4a83831905e19c2d6, type: 3}
  m_Name: ClassicKnife 6
  m_EditorClassIdentifier: 
  knifeSprite: {fileID: 21300000, guid: 028f6b7957e1de149ac235313c7841a7, type: 3}
  request: {fileID: 11400000, guid: f8b6db52ad89a554bb60bd39118eb174, type: 2}
