%YAML 1.1
%TAG !u! tag:unity3d.com,2011:
--- !u!114 &11400000
MonoBehaviour:
  m_ObjectHideFlags: 0
  m_CorrespondingSourceObject: {fileID: 0}
  m_PrefabInstance: {fileID: 0}
  m_PrefabAsset: {fileID: 0}
  m_GameObject: {fileID: 0}
  m_Enabled: 1
  m_EditorHideFlags: 0
  m_Script: {fileID: 11500000, guid: 1e51d57f568072f4a83831905e19c2d6, type: 3}
  m_Name: ClassicKnife 3
  m_EditorClassIdentifier: 
  knifeSprite: {fileID: 21300000, guid: c43e0574d5671cf4e8e9f61bd8b6bdeb, type: 3}
  request: {fileID: 11400000, guid: 8b5db1f0e54a61442b0999397e53f549, type: 2}
