%YAML 1.1
%TAG !u! tag:unity3d.com,2011:
--- !u!114 &11400000
MonoBehaviour:
  m_ObjectHideFlags: 0
  m_CorrespondingSourceObject: {fileID: 0}
  m_PrefabInstance: {fileID: 0}
  m_PrefabAsset: {fileID: 0}
  m_GameObject: {fileID: 0}
  m_Enabled: 1
  m_EditorHideFlags: 0
  m_Script: {fileID: 11500000, guid: 09902a6ef61a1064e83bb2eb8ff9b8e3, type: 3}
  m_Name: EnvironmentsSettings
  m_EditorClassIdentifier: 
  dartboardPrefab: {fileID: 8430392729941400832, guid: 394cf4fa76fb4f84593a00d24c29cd0c, type: 3}
  knifePrefab: {fileID: 6564686646043354349, guid: 82741311531e9fa45b09eaf637f32087, type: 3}
  applePrefab: {fileID: 4314571566395901529, guid: 4c8024e205834614e8a3ec3ae9d79367, type: 3}
  indicatorPrefab: {fileID: 8420228109997363336, guid: 06c867c2f91e59746975af36ec9f86fe, type: 3}
  dartboardPoolCount: 1
  knifePoolCount: 25
  applePoolCount: 2
  indicatorPoolCount: 15
  dartboardSpawnPosition: {x: 0, y: 1, z: 10}
  knifeSpawnPosition: {x: 0, y: -4, z: 10}
  throwDelay: 0.1
  throwPower: 3000
  dartboardExplosionForce: 3000
  dartboardExplosionRadius: 50
  knifeExplosionForce: 500
  appleExplosionForce: 100
  chipsParticle: {fileID: 7771843650316744681, guid: f8ca5d17c3e5fdc49ae2fd7d58a89ade, type: 3}
  destroyParticle: {fileID: 6265730498061606347, guid: 97776ec476e33f9408f68a772839ee15, type: 3}
  crashParticle: {fileID: 6265730498061606347, guid: 51b109bf88876024e9c756000f066930, type: 3}
  appleParticle: {fileID: 198157547220164012, guid: 293049e0e55979e44b76facefee2a158, type: 3}
  blindingEffect: {fileID: 4546651954900652905, guid: bc6e2c95c818a1a46bab99841bd649dd, type: 3}
  dartboardCustomization:
  - {fileID: 11400000, guid: 7a4bddcc84ffa774ba064797be5db010, type: 2}
  - {fileID: 11400000, guid: b065cba465fea5649bb9d649aee89f8b, type: 2}
  knifeCustomization:
  - {fileID: 11400000, guid: 169d886d307569e4493c84efa0ed17ef, type: 2}
  - {fileID: 11400000, guid: 6bcfbc0904b7f06429ab1bf109862134, type: 2}
  - {fileID: 11400000, guid: fad2858d17787cf4993014f43ca00370, type: 2}
  - {fileID: 11400000, guid: c658e88d31b8bda46bc2ac2c4e32d048, type: 2}
  - {fileID: 11400000, guid: 3624150f530b80f42bf1574e15c300f6, type: 2}
  - {fileID: 11400000, guid: 154819fbd4a654c4ab95f4082d48bc00, type: 2}
