%YAML 1.1
%TAG !u! tag:unity3d.com,2011:
--- !u!1 &3623835889761265321
GameObject:
  m_ObjectHideFlags: 0
  m_CorrespondingSourceObject: {fileID: 0}
  m_PrefabInstance: {fileID: 0}
  m_PrefabAsset: {fileID: 0}
  serializedVersion: 6
  m_Component:
  - component: {fileID: 3623835889761265320}
  - component: {fileID: 3623835889761265325}
  - component: {fileID: 3623835889761265322}
  - component: {fileID: 6564686646043354349}
  - component: {fileID: 716888605508899092}
  m_Layer: 0
  m_Name: Knife
  m_TagString: Untagged
  m_Icon: {fileID: 0}
  m_NavMeshLayer: 0
  m_StaticEditorFlags: 0
  m_IsActive: 1
--- !u!4 &3623835889761265320
Transform:
  m_ObjectHideFlags: 0
  m_CorrespondingSourceObject: {fileID: 0}
  m_PrefabInstance: {fileID: 0}
  m_PrefabAsset: {fileID: 0}
  m_GameObject: {fileID: 3623835889761265321}
  m_LocalRotation: {x: 0, y: 0, z: 0, w: 1}
  m_LocalPosition: {x: 0, y: -3, z: 10}
  m_LocalScale: {x: 0.25, y: 0.25, z: 0.25}
  m_ConstrainProportionsScale: 1
  m_Children: []
  m_Father: {fileID: 0}
  m_RootOrder: 0
  m_LocalEulerAnglesHint: {x: 0, y: 0, z: 0}
--- !u!212 &3623835889761265325
SpriteRenderer:
  m_ObjectHideFlags: 0
  m_CorrespondingSourceObject: {fileID: 0}
  m_PrefabInstance: {fileID: 0}
  m_PrefabAsset: {fileID: 0}
  m_GameObject: {fileID: 3623835889761265321}
  m_Enabled: 1
  m_CastShadows: 0
  m_ReceiveShadows: 0
  m_DynamicOccludee: 1
  m_StaticShadowCaster: 0
  m_MotionVectors: 1
  m_LightProbeUsage: 1
  m_ReflectionProbeUsage: 1
  m_RayTracingMode: 0
  m_RayTraceProcedural: 0
  m_RenderingLayerMask: 1
  m_RendererPriority: 0
  m_Materials:
  - {fileID: 10754, guid: 0000000000000000f000000000000000, type: 0}
  m_StaticBatchInfo:
    firstSubMesh: 0
    subMeshCount: 0
  m_StaticBatchRoot: {fileID: 0}
  m_ProbeAnchor: {fileID: 0}
  m_LightProbeVolumeOverride: {fileID: 0}
  m_ScaleInLightmap: 1
  m_ReceiveGI: 1
  m_PreserveUVs: 0
  m_IgnoreNormalsForChartDetection: 0
  m_ImportantGI: 0
  m_StitchLightmapSeams: 1
  m_SelectedEditorRenderState: 0
  m_MinimumChartSize: 4
  m_AutoUVMaxDistance: 0.5
  m_AutoUVMaxAngle: 89
  m_LightmapParameters: {fileID: 0}
  m_SortingLayerID: 0
  m_SortingLayer: 0
  m_SortingOrder: 0
  m_Sprite: {fileID: 21300000, guid: bf0d67a7817625e42821cc063378440c, type: 3}
  m_Color: {r: 1, g: 1, b: 1, a: 1}
  m_FlipX: 0
  m_FlipY: 0
  m_DrawMode: 0
  m_Size: {x: 1.14, y: 6.67}
  m_AdaptiveModeThreshold: 0.5
  m_SpriteTileMode: 0
  m_WasSpriteAssigned: 1
  m_MaskInteraction: 0
  m_SpriteSortPoint: 0
--- !u!50 &3623835889761265322
Rigidbody2D:
  serializedVersion: 4
  m_ObjectHideFlags: 0
  m_CorrespondingSourceObject: {fileID: 0}
  m_PrefabInstance: {fileID: 0}
  m_PrefabAsset: {fileID: 0}
  m_GameObject: {fileID: 3623835889761265321}
  m_BodyType: 0
  m_Simulated: 1
  m_UseFullKinematicContacts: 0
  m_UseAutoMass: 0
  m_Mass: 1
  m_LinearDrag: 0
  m_AngularDrag: 0.05
  m_GravityScale: 1
  m_Material: {fileID: 0}
  m_Interpolate: 0
  m_SleepingMode: 1
  m_CollisionDetection: 1
  m_Constraints: 0
--- !u!114 &6564686646043354349
MonoBehaviour:
  m_ObjectHideFlags: 0
  m_CorrespondingSourceObject: {fileID: 0}
  m_PrefabInstance: {fileID: 0}
  m_PrefabAsset: {fileID: 0}
  m_GameObject: {fileID: 3623835889761265321}
  m_Enabled: 1
  m_EditorHideFlags: 0
  m_Script: {fileID: 11500000, guid: 03fa870aa1431a54c89e9449c9e0b94e, type: 3}
  m_Name: 
  m_EditorClassIdentifier: 
--- !u!60 &716888605508899092
PolygonCollider2D:
  m_ObjectHideFlags: 0
  m_CorrespondingSourceObject: {fileID: 0}
  m_PrefabInstance: {fileID: 0}
  m_PrefabAsset: {fileID: 0}
  m_GameObject: {fileID: 3623835889761265321}
  m_Enabled: 1
  m_Density: 1
  m_Material: {fileID: 0}
  m_IsTrigger: 0
  m_UsedByEffector: 0
  m_UsedByComposite: 0
  m_Offset: {x: 0, y: 0}
  m_SpriteTilingProperty:
    border: {x: 0, y: 0, z: 0, w: 0}
    pivot: {x: 0.5, y: 0.5}
    oldSize: {x: 1.78, y: 8.66}
    newSize: {x: 1.14, y: 6.67}
    adaptiveTilingThreshold: 0.5
    drawMode: 0
    adaptiveTiling: 0
  m_AutoTiling: 0
  m_Points:
    m_Paths:
    - - {x: 0.35, y: -3.9199998}
      - {x: 0.53999996, y: -2.9099998}
      - {x: 0.55, y: -2.6299999}
      - {x: 0.48, y: -1.8}
      - {x: 0.47, y: -1.79}
      - {x: 0.84, y: -1.0799999}
      - {x: 0.89, y: -1.05}
      - {x: 0.89, y: -0.91999996}
      - {x: 0.83, y: -0.88}
      - {x: 0.64, y: -0.89}
      - {x: 0.64, y: 2.6699998}
      - {x: 0.63, y: 2.72}
      - {x: 0.57, y: 2.99}
      - {x: 0.5, y: 3.23}
      - {x: 0.38, y: 4.3199997}
      - {x: 0.38, y: 4.33}
      - {x: 0.32, y: 4.33}
      - {x: 0.28, y: 4.31}
      - {x: 0.12, y: 4.11}
      - {x: -0.049999997, y: 3.9199998}
      - {x: -0.16, y: 3.77}
      - {x: -0.28, y: 3.58}
      - {x: -0.41, y: 3.31}
      - {x: -0.5, y: 3.09}
      - {x: -0.53, y: 3}
      - {x: -0.56, y: 2.84}
      - {x: -0.56, y: 2.31}
      - {x: -0.55, y: 2.3}
      - {x: -0.55, y: 1.48}
      - {x: -0.53999996, y: 1.4699999}
      - {x: -0.53999996, y: 0.65}
      - {x: -0.53, y: 0.64}
      - {x: -0.53, y: -0.17999999}
      - {x: -0.66999996, y: -0.41}
      - {x: -0.83, y: -0.89}
      - {x: -0.87, y: -0.9}
      - {x: -0.89, y: -0.93}
      - {x: -0.89, y: -1.04}
      - {x: -0.84999996, y: -1.0799999}
      - {x: -0.5, y: -1.0799999}
      - {x: -0.5, y: -1.8299999}
      - {x: -0.51, y: -1.8399999}
      - {x: -0.52, y: -2.01}
      - {x: -0.55, y: -2.53}
      - {x: -0.56, y: -2.71}
      - {x: -0.56, y: -2.9199998}
      - {x: -0.38, y: -3.83}
      - {x: -0.35999998, y: -3.9199998}
      - {x: -0.51, y: -4.12}
      - {x: -0.51, y: -4.3199997}
      - {x: -0.5, y: -4.33}
      - {x: 0.47, y: -4.33}
      - {x: 0.48, y: -4.3199997}
      - {x: 0.48, y: -4.08}
      - {x: 0.45999998, y: -4.0499997}
